<?xml version="1.0" encoding="UTF-8" standalone="no"?>
<!-- Created with Inkscape (http://www.inkscape.org/) -->

<svg
   width="93"
   height="93"
   viewBox="0 0 24.60625 24.60625"
   version="1.1"
   id="svg5"
   inkscape:version="1.2 (dc2aeda, 2022-05-15)"
   sodipodi:docname="pauseButton.svg"
   xmlns:inkscape="http://www.inkscape.org/namespaces/inkscape"
   xmlns:sodipodi="http://sodipodi.sourceforge.net/DTD/sodipodi-0.dtd"
   xmlns:xlink="http://www.w3.org/1999/xlink"
   xmlns="http://www.w3.org/2000/svg"
   xmlns:svg="http://www.w3.org/2000/svg">
  <sodipodi:namedview
     id="namedview7"
     pagecolor="#ffffff"
     bordercolor="#666666"
     borderopacity="1.0"
     inkscape:pageshadow="2"
     inkscape:pageopacity="0.0"
     inkscape:pagecheckerboard="true"
     inkscape:document-units="mm"
     showgrid="true"
     inkscape:zoom="8.0418015"
     inkscape:cx="31.833663"
     inkscape:cy="47.315269"
     inkscape:window-width="1728"
     inkscape:window-height="973"
     inkscape:window-x="0"
     inkscape:window-y="38"
     inkscape:window-maximized="0"
     inkscape:current-layer="layer1"
     inkscape:showpageshadow="2"
     inkscape:deskcolor="#d1d1d1">
    <inkscape:grid
       type="xygrid"
       id="grid824"
       originx="-97.763535"
       originy="-133.48229" />
  </sodipodi:namedview>
  <defs
     id="defs2">
    <linearGradient
       inkscape:collect="always"
       id="linearGradient1305">
      <stop
         style="stop-color:#ffffff;stop-opacity:1"
         offset="0"
         id="stop1301" />
      <stop
         style="stop-color:#ffffff;stop-opacity:0"
         offset="1"
         id="stop1303" />
    </linearGradient>
    <linearGradient
       inkscape:collect="always"
       xlink:href="#linearGradient1305"
       id="linearGradient1629"
       gradientUnits="userSpaceOnUse"
       x1="100.0125"
       y1="135.46666"
       x2="100.0125"
       y2="137.58333"
       gradientTransform="matrix(5.8030287,0,0,5.8030287,-469.56109,-641.11926)" />
  </defs>
  <g
     inkscape:label="Layer 1"
     inkscape:groupmode="layer"
     id="layer1"
     transform="translate(-97.763541,-133.48229)">
    <path
       style="fill:url(#linearGradient1629);fill-opacity:1;stroke:#ffffff;stroke-width:1.53538px;stroke-linecap:butt;stroke-linejoin:miter;stroke-opacity:1"
       d="m 98.531232,141.92692 7.676928,-7.67694 h 15.35383 v 15.35383 l -7.67688,7.67694 H 98.531232 Z"
       id="path859"
       inkscape:export-filename="/Users/edward/pauseButton.png"
       inkscape:export-xdpi="560"
       inkscape:export-ydpi="560" />
    <path
       style="fill:#000000;fill-opacity:1;stroke:none;stroke-width:2.37861px;stroke-linecap:butt;stroke-linejoin:miter;stroke-opacity:1"
       d="m 103.13739,140.39156 v 12.28304 h 4.60616 v -12.28304 z"
       id="path861" />
    <path
       style="fill:#000000;fill-opacity:1;stroke:none;stroke-width:2.37861px;stroke-linecap:butt;stroke-linejoin:miter;stroke-opacity:1"
       d="m 110.81432,140.39156 v 12.28304 h 4.60615 v -12.28304 z"
       id="path1140" />
  </g>
</svg>
